-56 -8 -16 -64 -96 712
48 -56 -64 40 -64 -40 -56 -80 480
360 -120 496
-24 144 -24 776
8 -24 48 -64 816
88 -64 -120 8 -16 -48 -72 520
-80 -24 -40 -56 -16 736
-8 -8 -8 -8 -8 -8 -8 -8 -8 -8 -8 -8 -8 -8 -8 752
-24 -56 896
-96 -32 -48 -56 200 -32 480
48 -24 -64 832
-56 -72 -8 64 -88 664
-32 -40 80 -56 752
-40 -24 -40 -56 -72 -32 -24 -16 -8 608
992
40 -56 32 -16 -24 -32 48 -24 -32 -80 528
56 -16 -32 8 -88 -40 48 -64 -144 424
56 -40 64 -16 -32 -64 -80 584
16 -104 -32 -16 64 -64 648
24 -40 16 -8 88 -32 -40 -8 -16 -24 -8 600
