-136 848
-144 56 -40 -120 -176 -176 232
-144 -160 -208 456
-32 88 -8 -80 24 -56 -64 88 -120 -112 -40 -64 -40 72
-8 -32 -104 -48 -112 -184 -128 -40 -120 144
-24 -8 16 -216 -16 -80 32 -32 -32 -88 -64 -144 144
-104 -32 48 -24 -232 512
-24 -176 -40 16 -120 -88 -32 -72 -64 -120 -80 72
-64 -120 336 -240 200
-40 -32 8 -200 -168 -40 40 -120 -160 112
-40 -120 8 -56 -80 -56 16 -224 -224 96
-120 -32 -80 56 -112 -24 -248 264
40 -120 32 -208 24 -192 -136 184
24 -176 -136 96 -120 400
-56 -96 -80 32 -72 -128 -128 -72 -232 24
-72 -72 -16 -88 176 -232 -240 40
72 -56 -120 -216 496
-16 48 -144 -160 -112 472
-8 96 -88 48 -48 -112 8 -112 -168 232
-32 88 -104 -72 16 -16 112 -120 -152 208
-32 -64 -8 144 -24 -64 136 -72 -248 128
