144 -112 -56 -64 584
-992
992
-64 -24 24 -24 -136 -112 -160 392
-136 848
-40 -88 848
120 -128 728
16 -144 -96 -128 64 -136 -40 312
-8 112 -136 216 -160 320
-120 -136 -96 -48 -136 416
-120 -112 120 -72 48 -152 -136 176
-152 832
80 -144 -88 -88 -104 -120 320
-32 952
48 -16 912
-160 824
992
-16 -104 -128 -160 -40 -72 424
-192 -360 -24 392
-88 -16 872
