-64 -24 -8 184 -16 656
88 -8 -8 -8 848
992
-48 936
-32 -24 16 -64 824
32 -48 -24 864
-24 -40 -64 -24 -8 -32 752
-8 64 -56 -24 808
-40 -24 56 -24 16 -40 744
-16 -16 24 -16 -16 864
-16 8 -16 8 -16 8 -16 -8 -16 -8 792
-80 -8 -16 48 -96 -104 -112 -32 -48 -24 -56 -72 -40 152
-240 -80 -40 -8 -8 -8 -40 8 -240 -80 160
-56 -24 -64 -40 -32 -24 -56 -64 -40 -32 -16 -56 -32 -40 -48 248
-128 128 -112 -128 464
-56 -24 -32 -16 -24 -24 -32 -32 -48 -48 -32 536
32 -56 -184 -40 -64 576
-32 -16 -24 -32 -16 -32 792
-80 -168 -104 -40 -8 552
-40 152 -8 -56 -24 -32 -56 -24 -8 -40 -24 -56 -72 -72 -16 -48 -24 -80 16
