-40 944
-40 -24 912
40 -24 912
72 -24 880
160 -64 -72 -80 -88 -96 -104 -112 -120 24
184 -80 -96 -112 -128 -144 200
-120 864
56 -8 -8 -8 -8 -8 -8 -8 816
64 -48 -56 -32 -24 -16 -48 -56 -40 536
208 -64 -96 -32 -40 -48 -64 -56 320
-400 584
-96 96 -192 96 -40 -48 -64 304
-64 -56 -40 -32 -24 -128 -184 -224 176
-48 -32 -64 -40 -64 -40 -48 -24 568
328 -96 -96 -96 344
96 -96 -360 416
992
16 -16 8 -8 912
96 -24 856
-56 184 -184 -416 120
