8 -8 -40 8 -48 -40 -72 72 -40 -56 -16 -152 -56 32 -32 -48 32 -24 16 -8 8 -8
-24 -32 -88 -40 -32 -16 -48 -8 16 -8 -80 24 -88 8 -48 -24 -56 -128 -56 16
-240 -64 -8 656
-8 8 -16 16 -8 -632 144 -32 -40 16
-104 88 -216 560
-24 -96 80 -136 -120 64 -40 8 -96 -16 232
160 -440 376
992
72 -80 -64 -16 80 -24 -144 -16 -72 -232 112
-56 -616 -224 -8 -56
-192 -8 8 -32 -304 -56 -80 -192 56
-8 -16 -8 24 -8 -40 -48 -16 -88 -56 -56 -248 -16 -8 -240
-56 -192 -280 56 -56 -104 -24 64 -96
-24 -40 24 -48 -80 -56 -80 56 -104 -176 72 -112 24
88 -32 -16 -16 -16 -32 24 -24 -8 -16 -16 -16 -8 -144 152 -216 -40
-120 -40 184 -64 -448 -48 40
-8 -8 -8 -32 -16 -24 -16 -32 -32 -72 -16 -24 -24 -32 -48 -16 -16 -32 -8 8 -16 -8 8 -8 -16 -16 -48 -32 -64 -8 -56
-368 -40 -8 -64 -16 -320 128
-16 -16 -8 8 -40 -40 -112 24 -16 8 -24 -32 8 -8 -32 -32 -72 -72 -32 -40 -48 88 -40
-304 -424 -248
-272 -184 -232 -16 8 -24 -104 72 -16
-8 -8 -32 -40 -40 -16 -16 -16 -8 -16 -8 -24 -32 -48 -32 -32 -8 -32 -40 -40 -8 -80 -64 -16 -40 -48 -32
-264 720
-8 -24 -40 8 -56 -8 -120 160 -16 -248 -24 -32 -32 -32 8 -8 -40
-280 -16 -16 16 -8 -8 -32 -64 184 -296
-968 -16
-960 24
-200 -600 176
-56 160 -80 -616 -48
-112 784 -16 -56
-664 8 -56 240
-320 -48 -40 -16 -16 288 -8 -32 -16 -88 -40
-168 -664 144
-712 -48 -56 -120 24
-496 -8 -192 -8 64 -152 24
-8 -8 80 -24 32 -104 -56 -64 112 -120 -96 8 -24 -152
-48 -24 40 -32 -368 -72 56 -120 -152 8
-8 -8 8 -8 -80 -16 -16 -304 -32 72 -8 -160 -160 -8
120 -72 104 -24 -112 16 -8 240 -232
-16 -88 16 -8 -136 40 -8 24 -136 48 -40 96 -32 -72 120
-32 -32 -16 -8 -16 -8 -104 -16 -32 -8 -24 -16 -96 -8 -96 -16 -272 -8 -24 8
992
-528 64 -160 216
-192 -312 -88 208 -80 72
32 -32 -56 -56 -56 48 -184 56 -296 104
-48 -96 -24 -16 -16 -56 -32 -8 -8 -24 -8 -32 -8 -8 -24 -56 -8 -16 -8 -56 -72 -64 24 -24 -16 -40
-16 -24 -16 -16 -32 -24 -16 8 -24 8 -32 -24 -24 -32 -32 -16 -32 -56 -32 32 -40 -80 -72 -24 -40 -40
-728 144 -56 -8 8 -8
-32 -8 -32 -8 16 -16 -40 -16 -8 8 -24 -8 -32 -16 8 -80 -16 -8 -96 80 -176 96
992
-96 -40 -8 -8 -16 -8 -8 -8 -16 -16 -8 -8 -32 -72 -32 -32 -8 -24 -72 -16 -32 -32 8 -24 -56 -64 -16 16
272 -440 264
-352 632
48 -32 -64 96 -48 -176 -280 -168 -16
992
-16 -16 -64 -8 -24 -16 -16 -16 -168 -296 -64 -16 16 -120 24
-176 -96 -176 56 -136 312
-8 -16 -8 -8 -8 -48 -40 -8 -48 -16 -24 -16 -48 -8 -16 -8 -32 -64 -24 -64 -136 -16 -32 -16 -8 -72
-80 -24 -8 8 -16 -24 16 -16 -104 -8 16 -16 -24 -40 -64 56 -64 -72 8 -24 32 -24 -48 16
-24 -32 -8 -64 -16 -16 16 -8 -8 -24 -40 -48 -48 -24 -56 -8 -8 -48 -64 -56 -56 -136 8
-544 -160 -48 -120 88
-72 176 -200 8 -16 -392 80
-32 -16 -8 -24 -8 -24 -96 -8 8 -16 -16 24 -8 -16 -40 -96 -16 -48 -48 -152 -64 -24 24
-592 -296 -88
-656 328
-120 864
-16 -32 -8 -8 -8 -24 -16 -24 104 -56 32 -32 -200 -32 -56 -32 16 -72 -24 48
992
-40 -16 -32 -24 -8 -8 16 -8 -32 -24 -16 -40 -24 -16 -88 -48 -8 -40 -16 -24 64 -88 -8 -48 -16 24 -8
-72 -24 -464 -200 -80 -8 40 -48
128 -64 192 -64 512
256 -168 552
824 -8 144
-920 -32 -24
-280 -680 16
-8 -16 -8 -16 -8 -32 -8 -40 8 -32 96 -24 -16 -40 -8 -8 -24 -24 -8 24 -24 -56 -16 -32 -32 -8 -32 -40 24 -32 8
-304 -296 296 -72
-528 -8 48 -64 -16 -144 8 -80 32
-16 24 -16 -128 -40 56 -184 392 -8 56
-328 -544 104
-128 -648 -136 56
-24 -8 -40 -56 -280 -72 -424 -32
-48 -280 -112 176 -304 32
16 -8 -32 -24 -80 -32 -32 -64 16 -24 -24 -32 8 -192 -40 24 -160 -48
-144 -88 744
992
-936 48
-16 -8 -32 -88 -16 -144 -16 -24 -24 24 -40 -24 -32 16 -128 -40 -88 32 -40 -8
136 -16 -24 -80 -24 -328 -40 72 -144 -24 -24
992
-40 -40 -352 536
-168 816
-8 -16 -40 8 -8 -128 -24 -32 16 -80 -32 -24 16 -32 -24 -32 -16 -8 -24 8 -24 16 -64 -8 -32 -32 -32
-48 -16 -8 -8 -32 -16 -304 48 -72 -32 -16 -96 8 -24 -88 56
992
-64 -16 -40 -24 -8 32 -24 -56 -32 -80 -264 32 -8 -8 48 -120 8
-16 -8 -32 -248 400 -128 88 -16
16 -8 8 -32 56 -152 -184 -144 64 -240 8
-64 16 -16 32 -176 24 -232 96 -120 -40 80 -8
-120 864
