72 -144 -72 -72 -8 16 -104 16 -144 -112 152
-96 888
-144 -40 136 -120 520
8 -112 856
-24 -8 56 -152 -192 104 -192 -128 72
-40 -16 -120 792
-16 -88 -80 784
224 -112 -128 504
-16 968
-88 -128 -96 656
-40 -48 -16 80 -24 -168 568
192 -24 -80 -120 544
-72 -32 -48 816
-40 -64 872
32 -32 24 -56 112 -56 632
-160 -168 648
-152 -80 -88 -168 472
-120 -88 -64 216 -176 288
-192 792
16 -8 88 -24 -152 144 -112 392
