-992
-24 960
-16 -16 944
40 -8 928
-16 24 -32 896
-24 -24 -24 -32 -32 816
-24 -8 -40 -40 -24 -40 768
-40 -16 -8 24 -16 -32 808
-16 -40 -40 -24 -16 -16 792
32 -24 -24 -40 840
8 -24 -40 -32 -16 -40 -24 752
-16 8 -8 8 -24 -32 -40 800
16 -32 8 -24 -24 -40 800
-8 -8 16 -16 24 -24 -40 800
-40 -24 -16 -40 -32 -24 768
-16 24 -16 -8 -32 -24 824
-8 -32 16 -24 24 -24 816
-32 -24 40 -24 72 -16 -40 688
-40 -8 56 -16 48 -32 32 -40 -32 616
-16 -8 -16 8 -24 -32 -40 -32 752
48 -32 -40 32 -16 -32 744
-40 64 -32 -40 784
-24 -16 -24 -32 -8 8 -40 -8 -24 736
-32 16 -32 -48 -40 -32 744
-16 8 -16 -8 -8 16 -32 104 -32 680
